\relax 
\providecommand\hyper@newdestlabel[2]{}
\providecommand\babel@aux[2]{}
\@nameuse{bbl@beforestart}
\@writefile{toc}{\boolfalse {citerequest}\boolfalse {citetracker}\boolfalse {pagetracker}\boolfalse {backtracker}\relax }
\@writefile{lof}{\boolfalse {citerequest}\boolfalse {citetracker}\boolfalse {pagetracker}\boolfalse {backtracker}\relax }
\@writefile{lot}{\boolfalse {citerequest}\boolfalse {citetracker}\boolfalse {pagetracker}\boolfalse {backtracker}\relax }
\abx@aux@refcontext{anyt/global//global/global}
\providecommand\HyperFirstAtBeginDocument{\AtBeginDocument}
\HyperFirstAtBeginDocument{\ifx\hyper@anchor\@undefined
\global\let\oldcontentsline\contentsline
\gdef\contentsline#1#2#3#4{\oldcontentsline{#1}{#2}{#3}}
\global\let\oldnewlabel\newlabel
\gdef\newlabel#1#2{\newlabelxx{#1}#2}
\gdef\newlabelxx#1#2#3#4#5#6{\oldnewlabel{#1}{{#2}{#3}}}
\AtEndDocument{\ifx\hyper@anchor\@undefined
\let\contentsline\oldcontentsline
\let\newlabel\oldnewlabel
\fi}
\fi}
\global\let\hyper@last\relax 
\gdef\HyperFirstAtBeginDocument#1{#1}
\providecommand\HyField@AuxAddToFields[1]{}
\providecommand\HyField@AuxAddToCoFields[2]{}
\providecommand\BKM@entry[2]{}
\babel@aux{italian}{}
\babel@aux{italian}{}
\BKM@entry{id=1,dest={696E6465782E30},srcline={13}}{496E646578}
\BKM@entry{id=2,dest={636861707465722A2E33},srcline={15}}{496E74726F64756374696F6E}
\@writefile{toc}{\defcounter {refsection}{0}\relax }\@writefile{toc}{\contentsline {chapter}{Introduction}{ii}{chapter*.3}\protected@file@percent }
\@writefile{lof}{\defcounter {refsection}{0}\relax }\@writefile{lof}{\addvspace {10\p@ }}
\@writefile{lot}{\defcounter {refsection}{0}\relax }\@writefile{lot}{\addvspace {10\p@ }}
\BKM@entry{id=3,dest={636861707465722E31},srcline={1}}{5468697320697320612063686170746572}
\BKM@entry{id=4,dest={73656374696F6E2E312E31},srcline={4}}{5468697320697320612073656374696F6E}
\abx@aux@cite{Delfs2016}
\abx@aux@segm{0}{0}{Delfs2016}
\@writefile{toc}{\defcounter {refsection}{0}\relax }\@writefile{toc}{\contentsline {chapter}{\numberline {1}This is a chapter}{1}{chapter.1}\protected@file@percent }
\@writefile{lof}{\defcounter {refsection}{0}\relax }\@writefile{lof}{\addvspace {10\p@ }}
\@writefile{lot}{\defcounter {refsection}{0}\relax }\@writefile{lot}{\addvspace {10\p@ }}
\newlabel{example-chapter}{{1}{1}{This is a chapter}{chapter.1}{}}
\@writefile{toc}{\defcounter {refsection}{0}\relax }\@writefile{toc}{\contentsline {section}{\numberline {1.1}This is a section}{1}{section.1.1}\protected@file@percent }
\BKM@entry{id=5,dest={73656374696F6E2A2E34},srcline={28}}{4269626C696F677261666961}
\abx@aux@refcontextdefaultsdone
\abx@aux@defaultrefcontext{0}{Delfs2016}{anyt/global//global/global}
\@writefile{toc}{\defcounter {refsection}{0}\relax }\@writefile{toc}{\contentsline {chapter}{Bibliografia}{2}{section*.4}\protected@file@percent }
\gdef \@abspage@last{5}
