\boolfalse {citerequest}\boolfalse {citetracker}\boolfalse {pagetracker}\boolfalse {backtracker}\relax 
\babel@toc {italian}{}
\babel@toc {italian}{}
\defcounter {refsection}{0}\relax 
\contentsline {chapter}{Introduction}{ii}{chapter*.3}%
\defcounter {refsection}{0}\relax 
\contentsline {chapter}{\numberline {1}This is a chapter}{1}{chapter.1}%
\defcounter {refsection}{0}\relax 
\contentsline {section}{\numberline {1.1}This is a section}{1}{section.1.1}%
\defcounter {refsection}{0}\relax 
\contentsline {chapter}{Bibliografia}{2}{section*.4}%
